//module github.com/oktalz/present
module gitlab.com/fer-go/present

go 1.22

require (
	github.com/fsnotify/fsnotify v1.7.0
	github.com/joho/godotenv v1.5.1
	github.com/oklog/ulid/v2 v2.1.0
	github.com/oktalz/goldmark-d2 v0.0.0-20240417192507-b2206c61b021
	github.com/yuin/goldmark v1.7.0
	github.com/yuin/goldmark-emoji v1.0.2
	go.abhg.dev/goldmark/mermaid v0.5.0
	golang.org/x/crypto v0.16.0
	nhooyr.io/websocket v1.8.10
	oss.terrastruct.com/d2 v0.6.3
)

require (
	cdr.dev/slog v1.4.2 // indirect
	github.com/PuerkitoBio/goquery v1.8.1 // indirect
	github.com/alecthomas/chroma v0.10.0 // indirect
	github.com/alecthomas/chroma/v2 v2.11.1 // indirect
	github.com/andybalholm/cascadia v1.3.2 // indirect
	github.com/dlclark/regexp2 v1.10.0 // indirect
	github.com/dop251/goja v0.0.0-20231027120936-b396bb4c349d // indirect
	github.com/fatih/color v1.16.0 // indirect
	github.com/go-sourcemap/sourcemap v2.1.3+incompatible // indirect
	github.com/golang/freetype v0.0.0-20170609003504-e2365dfdc4a0 // indirect
	github.com/golang/groupcache v0.0.0-20210331224755-41bb18bfe9da // indirect
	github.com/google/pprof v0.0.0-20231205033806-a5a03c77bf08 // indirect
	github.com/lucasb-eyer/go-colorful v1.2.0 // indirect
	github.com/mattn/go-colorable v0.1.13 // indirect
	github.com/mattn/go-isatty v0.0.20 // indirect
	github.com/mazznoer/csscolorparser v0.1.3 // indirect
	github.com/rivo/uniseg v0.4.4 // indirect
	go.opencensus.io v0.24.0 // indirect
	golang.org/x/exp v0.0.0-20231127185646-65229373498e // indirect
	golang.org/x/image v0.14.0 // indirect
	golang.org/x/net v0.19.0 // indirect
	golang.org/x/sys v0.18.0 // indirect
	golang.org/x/term v0.15.0 // indirect
	golang.org/x/text v0.14.0 // indirect
	golang.org/x/xerrors v0.0.0-20231012003039-104605ab7028 // indirect
	gonum.org/v1/plot v0.14.0 // indirect
	oss.terrastruct.com/util-go v0.0.0-20231101220827-55b3812542c2 // indirect
)
